Effective Communication
…
Visualizations

Visualizations are some of the most powerful tools for communicating in data science. For a given analysis the best plot depends on the context. We often make two versions of the same plot, a quick exploratory plot then a more careful communicatory plot. These two types of plots serve different purposes.

To illustrate these two types of plots, let’s use a dataset from Capital Bikeshare.10 Capital Bikeshare is a bike sharing system for Washington DC that makes their hourly rental data publicly available.

Code

library(tidyverse)
bikes <- read_csv('https://www.dropbox.com/s/f7wj0oxxckhvrn8/bikes_2011.csv?dl=1')
bikes %>% 
    select(hr, cnt, workingday)

# A tibble: 8,645 × 3
      hr   cnt workingday
   <dbl> <dbl>      <dbl>
 1     0    16          0
 2     1    40          0
 3     2    32          0
 4     3    13          0
 5     4     1          0
 6     5     1          0
 7     6     2          0
 8     7     3          0
 9     8     8          0
10     9    14          0
# ℹ 8,635 more rows
…
